@startuml

title __SERVICES's Class Diagram__\n

  namespace  {
    namespace om.gfi {
      namespace security {
        namespace services {
          class com.gfi.security.services.UserDetailsServiceImpl {
              + loadUserByUsername()
          }
        }
      }
    }
  }
  

  namespace  {
    namespace om.gfi {
      namespace security {
        namespace services {
          class com.gfi.security.services.UserPrinciple {
              - authorities : Collection<? extends GrantedAuthority>
              - email : String
              - id : Long
              - name : String
              - password : String
              {static} - serialVersionUID : long
              - username : String
              + UserPrinciple()
              {static} + build()
              + equals()
              + getAuthorities()
              + getEmail()
              + getId()
              + getName()
              + getPassword()
              + getUsername()
              + isAccountNonExpired()
              + isAccountNonLocked()
              + isCredentialsNonExpired()
              + isEnabled()
          }
        }
      }
    }
  }
  

  com.gfi.security.services.UserDetailsServiceImpl .up.|> org.springframework.security.core.userdetails.UserDetailsService
  com.gfi.security.services.UserDetailsServiceImpl o-- com.gfi.dao.UserRepository : userRepository
  com.gfi.security.services.UserPrinciple .up.|> org.springframework.security.core.userdetails.UserDetails


right footer


PlantUML diagram generated by SketchIt! (https://bitbucket.org/pmesmeur/sketch.it)
For more information about this tool, please contact philippe.mesmeur@gmail.com
endfooter

@enduml
