@startuml

title __JWT's Class Diagram__\n

  namespace  {
    namespace om.gfi {
      namespace security {
        namespace jwt {
          class com.gfi.security.jwt.JwtAuthEntryPoint {
              {static} - logger : Logger
              + commence()
          }
        }
      }
    }
  }
  

  namespace  {
    namespace om.gfi {
      namespace security {
        namespace jwt {
          class com.gfi.security.jwt.JwtAuthTokenFilter {
              {static} - logger : Logger
              # doFilterInternal()
              - getJwt()
          }
        }
      }
    }
  }
  

  namespace  {
    namespace om.gfi {
      namespace security {
        namespace jwt {
          class com.gfi.security.jwt.JwtProvider {
              - jwtSecret : String
              {static} - logger : Logger
              + generateJwtToken()
              + getUserNameFromJwtToken()
              + validateJwtToken()
          }
        }
      }
    }
  }
  

  com.gfi.security.jwt.JwtAuthEntryPoint .up.|> org.springframework.security.web.AuthenticationEntryPoint
  com.gfi.security.jwt.JwtAuthTokenFilter -up-|> org.springframework.web.filter.OncePerRequestFilter
  com.gfi.security.jwt.JwtAuthTokenFilter o-- com.gfi.security.jwt.JwtProvider : tokenProvider
  com.gfi.security.jwt.JwtAuthTokenFilter o-- com.gfi.security.services.UserDetailsServiceImpl : userDetailsService


right footer


PlantUML diagram generated by SketchIt! (https://bitbucket.org/pmesmeur/sketch.it)
For more information about this tool, please contact philippe.mesmeur@gmail.com
endfooter

@enduml
